[
    {
        "_id": "b-10",
        "_parentId": "a-05",
        "_type": "block",
        "_classes": "",
        "title": "b-10",
        "displayTitle": "",
        "body": "",
        "_trackingId": 1
    },
    {
        "_id": "b-15",
        "_parentId": "a-05",
        "_type": "block",
        "_classes": "",
        "title": "b-15",
        "displayTitle": "",
        "body": "",
        "_trackingId": 2
    },
    {
        "_id": "b-20",
        "_parentId": "a-05",
        "_type": "block",
        "_classes": "",
        "title": "b-20",
        "displayTitle": "",
        "body": "",
        "_trackingId": 3
    },
    {
        "_id": "b-25",
        "_parentId": "a-05",
        "_type": "block",
        "_classes": "",
        "title": "b-25",
        "displayTitle": "",
        "body": "",
        "_trackingId": 4
    },
    {
        "_id": "b-50",
        "_parentId": "a-10",
        "_type": "block",
        "_classes": "",
        "title": "b-50",
        "displayTitle": "",
        "body": "",
        "_trackingId": 5
    },
    {
        "_id": "b-55",
        "_parentId": "a-10",
        "_type": "block",
        "_classes": "",
        "title": "b-55",
        "displayTitle": "",
        "body": "",
        "_trackingId": 6
    },
    {
        "_id": "b-60",
        "_parentId": "a-10",
        "_type": "block",
        "_classes": "",
        "title": "b-60",
        "displayTitle": "",
        "body": "",
        "_trackingId": 7
    },
    {
        "_id": "b-100",
        "_parentId": "a-15",
        "_type": "block",
        "_classes": "",
        "title": "b-100",
        "displayTitle": "",
        "body": "",
        "_trackingId": 8
    },
    {
        "_id": "b-110",
        "_parentId": "a-15",
        "_type": "block",
        "_classes": "",
        "title": "b-110",
        "displayTitle": "",
        "body": "",
        "_trackingId": 9
    },
    {
        "_id": "b-115",
        "_parentId": "a-15",
        "_type": "block",
        "_classes": "",
        "title": "b-115",
        "displayTitle": "",
        "body": "",
        "_trackingId": 10
    },
    {
        "_id": "b-120",
        "_parentId": "a-15",
        "_type": "block",
        "_classes": "",
        "title": "b-120",
        "displayTitle": "",
        "body": "",
        "_trackingId": 11
    },
    {
        "_id": "b-125",
        "_parentId": "a-15",
        "_type": "block",
        "_classes": "",
        "title": "b-125",
        "displayTitle": "",
        "body": "",
        "_trackingId": 12
    },
    {
        "_id": "b-130",
        "_parentId": "a-15",
        "_type": "block",
        "_classes": "",
        "title": "b-130",
        "displayTitle": "",
        "body": "",
        "_trackingId": 13
    },
    {
        "_id": "b-140",
        "_parentId": "a-15",
        "_type": "block",
        "_classes": "",
        "title": "b-140",
        "displayTitle": "",
        "body": "",
        "_trackingId": 14
    },
    {
        "_id": "b-200",
        "_parentId": "a-20",
        "_type": "block",
        "_classes": "",
        "title": "b-200",
        "displayTitle": "",
        "body": "",
        "_trackingId": 15
    },
    {
        "_id": "b-210",
        "_parentId": "a-20",
        "_type": "block",
        "_classes": "",
        "title": "b-210",
        "displayTitle": "",
        "body": "",
        "_trackingId": 16
    },
    {
        "_id": "b-220",
        "_parentId": "a-20",
        "_type": "block",
        "_classes": "",
        "title": "b-220",
        "displayTitle": "",
        "body": "",
        "_trackingId": 17
    },
    {
        "_id": "b-230",
        "_parentId": "a-20",
        "_type": "block",
        "_classes": "",
        "title": "b-230",
        "displayTitle": "",
        "body": "",
        "_trackingId": 18
    },
    {
        "_id": "b-290",
        "_parentId": "a-20",
        "_type": "block",
        "_classes": "",
        "title": "b-290",
        "displayTitle": "",
        "body": "",
        "_trackingId": 19
    }
]